(kicad_sch (version 20211123) (generator eeschema)

  (uuid abddd0ce-d1ff-4869-b5d5-c1e10a45d65e)

  (paper "A4")

  (lib_symbols
    (symbol "board:esp32_lolin_s2" (in_bom yes) (on_board yes)
      (property "Reference" "U" (id 0) (at 6.35 22.86 0)
        (effects (font (size 1.27 1.27)))
      )
      (property "Value" "esp32_lolin_s2" (id 1) (at -6.35 22.86 0)
        (effects (font (size 1.27 1.27)))
      )
      (property "Footprint" "board:esp32_lolin_s2" (id 2) (at 0 12.7 0)
        (effects (font (size 1.27 1.27)) hide)
      )
      (property "Datasheet" "" (id 3) (at 3.81 13.97 0)
        (effects (font (size 1.27 1.27)) hide)
      )
      (symbol "esp32_lolin_s2_0_1"
        (rectangle (start -12.7 21.59) (end 12.7 -21.59)
          (stroke (width 0.1524) (type default) (color 0 0 0 0))
          (fill (type background))
        )
        (rectangle (start 1.27 22.86) (end 1.27 22.86)
          (stroke (width 0.1524) (type default) (color 0 0 0 0))
          (fill (type none))
        )
        (rectangle (start 1.27 22.86) (end 1.27 22.86)
          (stroke (width 0.1524) (type default) (color 0 0 0 0))
          (fill (type none))
        )
      )
      (symbol "esp32_lolin_s2_1_1"
        (pin input line (at -15.24 19.05 0) (length 2.54)
          (name "en" (effects (font (size 1.27 1.27))))
          (number "1" (effects (font (size 1.27 1.27))))
        )
        (pin bidirectional line (at -15.24 -3.81 0) (length 2.54)
          (name "8" (effects (font (size 1.27 1.27))))
          (number "10" (effects (font (size 1.27 1.27))))
        )
        (pin bidirectional line (at -15.24 -6.35 0) (length 2.54)
          (name "11" (effects (font (size 1.27 1.27))))
          (number "11" (effects (font (size 1.27 1.27))))
        )
        (pin bidirectional line (at -15.24 -8.89 0) (length 2.54)
          (name "10" (effects (font (size 1.27 1.27))))
          (number "12" (effects (font (size 1.27 1.27))))
        )
        (pin bidirectional line (at -15.24 -11.43 0) (length 2.54)
          (name "12" (effects (font (size 1.27 1.27))))
          (number "13" (effects (font (size 1.27 1.27))))
        )
        (pin bidirectional line (at -15.24 -13.97 0) (length 2.54)
          (name "13" (effects (font (size 1.27 1.27))))
          (number "14" (effects (font (size 1.27 1.27))))
        )
        (pin power_in line (at -15.24 -16.51 0) (length 2.54)
          (name "3.3v" (effects (font (size 1.27 1.27))))
          (number "15" (effects (font (size 1.27 1.27))))
        )
        (pin bidirectional line (at -15.24 -19.05 0) (length 2.54)
          (name "14" (effects (font (size 1.27 1.27))))
          (number "16" (effects (font (size 1.27 1.27))))
        )
        (pin bidirectional line (at 15.24 19.05 180) (length 2.54)
          (name "40" (effects (font (size 1.27 1.27))))
          (number "17" (effects (font (size 1.27 1.27))))
        )
        (pin bidirectional line (at 15.24 16.51 180) (length 2.54)
          (name "39" (effects (font (size 1.27 1.27))))
          (number "18" (effects (font (size 1.27 1.27))))
        )
        (pin bidirectional line (at 15.24 13.97 180) (length 2.54)
          (name "38" (effects (font (size 1.27 1.27))))
          (number "19" (effects (font (size 1.27 1.27))))
        )
        (pin bidirectional line (at -15.24 16.51 0) (length 2.54)
          (name "1" (effects (font (size 1.27 1.27))))
          (number "2" (effects (font (size 1.27 1.27))))
        )
        (pin bidirectional line (at 15.24 11.43 180) (length 2.54)
          (name "37" (effects (font (size 1.27 1.27))))
          (number "20" (effects (font (size 1.27 1.27))))
        )
        (pin bidirectional line (at 15.24 8.89 180) (length 2.54)
          (name "36" (effects (font (size 1.27 1.27))))
          (number "21" (effects (font (size 1.27 1.27))))
        )
        (pin bidirectional line (at 15.24 6.35 180) (length 2.54)
          (name "35" (effects (font (size 1.27 1.27))))
          (number "22" (effects (font (size 1.27 1.27))))
        )
        (pin bidirectional line (at 15.24 3.81 180) (length 2.54)
          (name "34" (effects (font (size 1.27 1.27))))
          (number "23" (effects (font (size 1.27 1.27))))
        )
        (pin bidirectional line (at 15.24 1.27 180) (length 2.54)
          (name "33" (effects (font (size 1.27 1.27))))
          (number "24" (effects (font (size 1.27 1.27))))
        )
        (pin bidirectional line (at 15.24 -1.27 180) (length 2.54)
          (name "21" (effects (font (size 1.27 1.27))))
          (number "25" (effects (font (size 1.27 1.27))))
        )
        (pin bidirectional line (at 15.24 -3.81 180) (length 2.54)
          (name "18" (effects (font (size 1.27 1.27))))
          (number "26" (effects (font (size 1.27 1.27))))
        )
        (pin bidirectional line (at 15.24 -6.35 180) (length 2.54)
          (name "17" (effects (font (size 1.27 1.27))))
          (number "27" (effects (font (size 1.27 1.27))))
        )
        (pin bidirectional line (at 15.24 -8.89 180) (length 2.54)
          (name "16" (effects (font (size 1.27 1.27))))
          (number "28" (effects (font (size 1.27 1.27))))
        )
        (pin power_out line (at 15.24 -11.43 180) (length 2.54)
          (name "gnd" (effects (font (size 1.27 1.27))))
          (number "29" (effects (font (size 1.27 1.27))))
        )
        (pin bidirectional line (at -15.24 13.97 0) (length 2.54)
          (name "3" (effects (font (size 1.27 1.27))))
          (number "3" (effects (font (size 1.27 1.27))))
        )
        (pin power_out line (at 15.24 -13.97 180) (length 2.54)
          (name "gnd" (effects (font (size 1.27 1.27))))
          (number "30" (effects (font (size 1.27 1.27))))
        )
        (pin bidirectional line (at 15.24 -16.51 180) (length 2.54)
          (name "15" (effects (font (size 1.27 1.27))))
          (number "31" (effects (font (size 1.27 1.27))))
        )
        (pin bidirectional line (at 15.24 -19.05 180) (length 2.54)
          (name "vbus" (effects (font (size 1.27 1.27))))
          (number "32" (effects (font (size 1.27 1.27))))
        )
        (pin bidirectional line (at -15.24 11.43 0) (length 2.54)
          (name "2" (effects (font (size 1.27 1.27))))
          (number "4" (effects (font (size 1.27 1.27))))
        )
        (pin bidirectional line (at -15.24 8.89 0) (length 2.54)
          (name "5" (effects (font (size 1.27 1.27))))
          (number "5" (effects (font (size 1.27 1.27))))
        )
        (pin bidirectional line (at -15.24 6.35 0) (length 2.54)
          (name "4" (effects (font (size 1.27 1.27))))
          (number "6" (effects (font (size 1.27 1.27))))
        )
        (pin bidirectional line (at -15.24 3.81 0) (length 2.54)
          (name "7" (effects (font (size 1.27 1.27))))
          (number "7" (effects (font (size 1.27 1.27))))
        )
        (pin bidirectional line (at -15.24 1.27 0) (length 2.54)
          (name "6" (effects (font (size 1.27 1.27))))
          (number "8" (effects (font (size 1.27 1.27))))
        )
        (pin bidirectional line (at -15.24 -1.27 0) (length 2.54)
          (name "9" (effects (font (size 1.27 1.27))))
          (number "9" (effects (font (size 1.27 1.27))))
        )
      )
    )
    (symbol "power:+3.3V" (power) (pin_names (offset 0)) (in_bom yes) (on_board yes)
      (property "Reference" "#PWR" (id 0) (at 0 -3.81 0)
        (effects (font (size 1.27 1.27)) hide)
      )
      (property "Value" "+3.3V" (id 1) (at 0 3.556 0)
        (effects (font (size 1.27 1.27)))
      )
      (property "Footprint" "" (id 2) (at 0 0 0)
        (effects (font (size 1.27 1.27)) hide)
      )
      (property "Datasheet" "" (id 3) (at 0 0 0)
        (effects (font (size 1.27 1.27)) hide)
      )
      (property "ki_keywords" "power-flag" (id 4) (at 0 0 0)
        (effects (font (size 1.27 1.27)) hide)
      )
      (property "ki_description" "Power symbol creates a global label with name \"+3.3V\"" (id 5) (at 0 0 0)
        (effects (font (size 1.27 1.27)) hide)
      )
      (symbol "+3.3V_0_1"
        (polyline
          (pts
            (xy -0.762 1.27)
            (xy 0 2.54)
          )
          (stroke (width 0) (type default) (color 0 0 0 0))
          (fill (type none))
        )
        (polyline
          (pts
            (xy 0 0)
            (xy 0 2.54)
          )
          (stroke (width 0) (type default) (color 0 0 0 0))
          (fill (type none))
        )
        (polyline
          (pts
            (xy 0 2.54)
            (xy 0.762 1.27)
          )
          (stroke (width 0) (type default) (color 0 0 0 0))
          (fill (type none))
        )
      )
      (symbol "+3.3V_1_1"
        (pin power_in line (at 0 0 90) (length 0) hide
          (name "+3V3" (effects (font (size 1.27 1.27))))
          (number "1" (effects (font (size 1.27 1.27))))
        )
      )
    )
    (symbol "power:GND" (power) (pin_names (offset 0)) (in_bom yes) (on_board yes)
      (property "Reference" "#PWR" (id 0) (at 0 -6.35 0)
        (effects (font (size 1.27 1.27)) hide)
      )
      (property "Value" "GND" (id 1) (at 0 -3.81 0)
        (effects (font (size 1.27 1.27)))
      )
      (property "Footprint" "" (id 2) (at 0 0 0)
        (effects (font (size 1.27 1.27)) hide)
      )
      (property "Datasheet" "" (id 3) (at 0 0 0)
        (effects (font (size 1.27 1.27)) hide)
      )
      (property "ki_keywords" "power-flag" (id 4) (at 0 0 0)
        (effects (font (size 1.27 1.27)) hide)
      )
      (property "ki_description" "Power symbol creates a global label with name \"GND\" , ground" (id 5) (at 0 0 0)
        (effects (font (size 1.27 1.27)) hide)
      )
      (symbol "GND_0_1"
        (polyline
          (pts
            (xy 0 0)
            (xy 0 -1.27)
            (xy 1.27 -1.27)
            (xy 0 -2.54)
            (xy -1.27 -1.27)
            (xy 0 -1.27)
          )
          (stroke (width 0) (type default) (color 0 0 0 0))
          (fill (type none))
        )
      )
      (symbol "GND_1_1"
        (pin power_in line (at 0 0 270) (length 0) hide
          (name "GND" (effects (font (size 1.27 1.27))))
          (number "1" (effects (font (size 1.27 1.27))))
        )
      )
    )
    (symbol "sensor:am2322" (in_bom yes) (on_board yes)
      (property "Reference" "U" (id 0) (at 2.54 -3.81 0)
        (effects (font (size 1.27 1.27)))
      )
      (property "Value" "am2322" (id 1) (at 2.54 5.08 0)
        (effects (font (size 1.27 1.27)))
      )
      (property "Footprint" "Connector_PinHeader_1.27mm:PinHeader_1x04_P1.27mm_Vertical" (id 2) (at 1.27 -5.08 0)
        (effects (font (size 1.27 1.27)) hide)
      )
      (property "Datasheet" "" (id 3) (at 1.27 -5.08 0)
        (effects (font (size 1.27 1.27)) hide)
      )
      (symbol "am2322_0_1"
        (rectangle (start -3.81 3.81) (end 6.35 -2.54)
          (stroke (width 0.1524) (type default) (color 0 0 0 0))
          (fill (type background))
        )
      )
      (symbol "am2322_1_1"
        (pin power_in line (at -6.35 2.54 0) (length 2.54)
          (name "vdd" (effects (font (size 1.27 1.27))))
          (number "1" (effects (font (size 1.27 1.27))))
        )
        (pin bidirectional line (at -6.35 1.27 0) (length 2.54)
          (name "sda" (effects (font (size 1.27 1.27))))
          (number "2" (effects (font (size 1.27 1.27))))
        )
        (pin power_in line (at -6.35 0 0) (length 2.54)
          (name "gnd" (effects (font (size 1.27 1.27))))
          (number "3" (effects (font (size 1.27 1.27))))
        )
        (pin input line (at -6.35 -1.27 0) (length 2.54)
          (name "scl" (effects (font (size 1.27 1.27))))
          (number "4" (effects (font (size 1.27 1.27))))
        )
      )
    )
  )

  (junction (at 80.01 102.87) (diameter 0) (color 0 0 0 0)
    (uuid 3761cd85-dbf1-4b10-a9b0-f9ec34ce9e05)
  )
  (junction (at 137.16 100.33) (diameter 0) (color 0 0 0 0)
    (uuid 474ec826-ab56-4cf7-8a5b-b92616648b85)
  )

  (wire (pts (xy 80.01 83.82) (xy 81.28 83.82))
    (stroke (width 0) (type default) (color 0 0 0 0))
    (uuid 17f6c8bc-ab6f-4eee-8ac5-ec031783e854)
  )
  (wire (pts (xy 85.09 86.36) (xy 85.09 91.44))
    (stroke (width 0) (type default) (color 0 0 0 0))
    (uuid 1f931173-e019-42da-aa8d-a72724c3f3ca)
  )
  (wire (pts (xy 85.09 86.36) (xy 83.82 86.36))
    (stroke (width 0) (type default) (color 0 0 0 0))
    (uuid 352ce6fe-dfdc-467a-82b2-f9a49ec320fd)
  )
  (wire (pts (xy 80.01 102.87) (xy 106.68 102.87))
    (stroke (width 0) (type default) (color 0 0 0 0))
    (uuid 4b73c882-bb91-4940-b848-e1b26a7c7269)
  )
  (wire (pts (xy 83.82 86.36) (xy 83.82 83.82))
    (stroke (width 0) (type default) (color 0 0 0 0))
    (uuid 4f3a6b27-f941-4057-ad15-e9a42acd0d54)
  )
  (wire (pts (xy 87.63 83.82) (xy 85.09 83.82))
    (stroke (width 0) (type default) (color 0 0 0 0))
    (uuid 5200b2a4-7afc-477e-ba49-09517b682d9d)
  )
  (wire (pts (xy 82.55 83.82) (xy 82.55 97.79))
    (stroke (width 0) (type default) (color 0 0 0 0))
    (uuid 520e95bf-4354-461e-aaa1-f647e7e89537)
  )
  (wire (pts (xy 80.01 83.82) (xy 80.01 102.87))
    (stroke (width 0) (type default) (color 0 0 0 0))
    (uuid 637fe0e5-b9e3-4c86-9e95-ec07e3428150)
  )
  (wire (pts (xy 87.63 83.82) (xy 87.63 92.71))
    (stroke (width 0) (type default) (color 0 0 0 0))
    (uuid 6eb65f09-b4ff-445a-b523-a6e4ec9be1fe)
  )
  (wire (pts (xy 137.16 97.79) (xy 137.16 100.33))
    (stroke (width 0) (type default) (color 0 0 0 0))
    (uuid 8be8885d-b777-4917-9e5f-e43f3550981f)
  )
  (wire (pts (xy 68.58 102.87) (xy 80.01 102.87))
    (stroke (width 0) (type default) (color 0 0 0 0))
    (uuid 9a5191ec-372f-4dfb-be37-70c4bdfac18b)
  )
  (wire (pts (xy 106.68 92.71) (xy 87.63 92.71))
    (stroke (width 0) (type default) (color 0 0 0 0))
    (uuid c6f097b9-062d-448d-bbb7-a3bc59ce5591)
  )
  (wire (pts (xy 106.68 97.79) (xy 82.55 97.79))
    (stroke (width 0) (type default) (color 0 0 0 0))
    (uuid cd1d5bd5-d41c-4f42-829c-7801e13d5e5d)
  )
  (wire (pts (xy 137.16 100.33) (xy 143.51 100.33))
    (stroke (width 0) (type default) (color 0 0 0 0))
    (uuid efea8908-d501-474b-9a8c-39077a59fc77)
  )

  (symbol (lib_id "power:GND") (at 143.51 100.33 0) (unit 1)
    (in_bom yes) (on_board yes) (fields_autoplaced)
    (uuid 3cfd3d72-d025-45e9-bed4-1bf3bf145ba0)
    (property "Reference" "#PWR?" (id 0) (at 143.51 106.68 0)
      (effects (font (size 1.27 1.27)) hide)
    )
    (property "Value" "GND" (id 1) (at 143.51 104.7734 0))
    (property "Footprint" "" (id 2) (at 143.51 100.33 0)
      (effects (font (size 1.27 1.27)) hide)
    )
    (property "Datasheet" "" (id 3) (at 143.51 100.33 0)
      (effects (font (size 1.27 1.27)) hide)
    )
    (pin "1" (uuid 9097c111-37cb-4c41-ab2f-b2d867fea3ac))
  )

  (symbol (lib_id "board:esp32_lolin_s2") (at 121.92 86.36 0) (unit 1)
    (in_bom yes) (on_board yes) (fields_autoplaced)
    (uuid 3e037654-4e12-4920-a35d-2850ab9ee893)
    (property "Reference" "U?" (id 0) (at 121.92 59.851 0))
    (property "Value" "esp32_lolin_s2" (id 1) (at 121.92 62.3879 0))
    (property "Footprint" "board:esp32_lolin_s2" (id 2) (at 121.92 73.66 0)
      (effects (font (size 1.27 1.27)) hide)
    )
    (property "Datasheet" "" (id 3) (at 125.73 72.39 0)
      (effects (font (size 1.27 1.27)) hide)
    )
    (pin "1" (uuid 75ef1996-510b-4836-8f4c-549e5a54e35c))
    (pin "10" (uuid a587c416-7beb-47c2-b47b-1e31f7ebad85))
    (pin "11" (uuid 846aa1c1-c554-416b-8d3b-d1037b5465c2))
    (pin "12" (uuid 62617a27-2d0a-43e9-b8b0-bf121364e9e1))
    (pin "13" (uuid 4fc056a8-59b4-4f4e-8750-6b8d575e7c77))
    (pin "14" (uuid e1498035-f5e1-4c37-9132-f18de0d79371))
    (pin "15" (uuid 7e43aba6-df74-4afd-9897-529828a77690))
    (pin "16" (uuid 8f311ef6-1801-4c78-ab40-79bb8ddf6ce6))
    (pin "17" (uuid a0c4b24e-a664-4867-8480-708cd85ce674))
    (pin "18" (uuid 089f4cc0-837a-4571-ad27-959e168546dd))
    (pin "19" (uuid 58883399-2532-483a-8df6-4e0a95bcde7b))
    (pin "2" (uuid 7d94566f-36a3-4e21-a00a-b59d2abf80a1))
    (pin "20" (uuid b0876ff1-6755-435f-8371-a433243efaad))
    (pin "21" (uuid 17c8e53e-6f54-4c05-b844-fe8d0e2723d0))
    (pin "22" (uuid 6eff5a8e-4e9a-4445-868d-44335ef1826f))
    (pin "23" (uuid b3ac531e-8f5c-40bb-9cf3-e2314d1d66d8))
    (pin "24" (uuid 5b7a65ed-e7cb-44cb-b853-c22b0ee5d838))
    (pin "25" (uuid a36bc294-4dc5-4e22-a5b5-33344019f56d))
    (pin "26" (uuid bb4d7178-400a-4682-a6b7-4529e89acc0a))
    (pin "27" (uuid 49f34919-f925-4e4f-990a-f3e7555d8d90))
    (pin "28" (uuid 4dc67c8e-6b56-477e-86c4-7c3c7e72ffdc))
    (pin "29" (uuid f35c8e99-caec-40cd-a1bc-abcb71c63cb0))
    (pin "3" (uuid b027608a-fa00-4367-8499-dca98b54ddb7))
    (pin "30" (uuid 791d9401-df27-4b86-a758-e13b2f9e101d))
    (pin "31" (uuid 1dcd6086-8d9a-4766-8073-b6b3d8b7bfe5))
    (pin "32" (uuid 3d20c1e7-e324-43ae-bf92-133ada7116d4))
    (pin "4" (uuid 6527106c-04a7-4fac-840e-edd0ba9aacb2))
    (pin "5" (uuid 9199326c-db5f-424e-8021-82873ccbd4f8))
    (pin "6" (uuid 90355b3e-4fc5-4ba1-82bf-0e5ec8bf37a2))
    (pin "7" (uuid a9346edf-b623-4209-882d-f9614bb3026b))
    (pin "8" (uuid 68f25880-6ce6-4a86-9aee-ff7144a99c7c))
    (pin "9" (uuid 62a8b50c-625d-4e89-a815-ce5e30ce58e4))
  )

  (symbol (lib_id "power:GND") (at 85.09 91.44 0) (unit 1)
    (in_bom yes) (on_board yes) (fields_autoplaced)
    (uuid 47adb376-2f58-467f-a5ba-6490aaec20d2)
    (property "Reference" "#PWR?" (id 0) (at 85.09 97.79 0)
      (effects (font (size 1.27 1.27)) hide)
    )
    (property "Value" "GND" (id 1) (at 85.09 95.8834 0))
    (property "Footprint" "" (id 2) (at 85.09 91.44 0)
      (effects (font (size 1.27 1.27)) hide)
    )
    (property "Datasheet" "" (id 3) (at 85.09 91.44 0)
      (effects (font (size 1.27 1.27)) hide)
    )
    (pin "1" (uuid 9a45e4b0-f60a-42d0-88b2-1b93eea514cb))
  )

  (symbol (lib_id "power:+3.3V") (at 68.58 102.87 0) (unit 1)
    (in_bom yes) (on_board yes) (fields_autoplaced)
    (uuid d69f270a-d715-4eb3-9618-a94ab69a5d3f)
    (property "Reference" "#PWR?" (id 0) (at 68.58 106.68 0)
      (effects (font (size 1.27 1.27)) hide)
    )
    (property "Value" "+3.3V" (id 1) (at 68.58 99.2942 0))
    (property "Footprint" "" (id 2) (at 68.58 102.87 0)
      (effects (font (size 1.27 1.27)) hide)
    )
    (property "Datasheet" "" (id 3) (at 68.58 102.87 0)
      (effects (font (size 1.27 1.27)) hide)
    )
    (pin "1" (uuid c422430c-e8f2-4af6-bf72-d51d28fc1f3a))
  )

  (symbol (lib_id "sensor:am2322") (at 83.82 77.47 90) (unit 1)
    (in_bom yes) (on_board yes) (fields_autoplaced)
    (uuid ebd5edfb-276e-4eee-868f-741f02182975)
    (property "Reference" "U?" (id 0) (at 87.0712 75.3653 90)
      (effects (font (size 1.27 1.27)) (justify right))
    )
    (property "Value" "am2322" (id 1) (at 87.0712 77.9022 90)
      (effects (font (size 1.27 1.27)) (justify right))
    )
    (property "Footprint" "Connector_PinHeader_1.27mm:PinHeader_1x04_P1.27mm_Vertical" (id 2) (at 88.9 76.2 0)
      (effects (font (size 1.27 1.27)) hide)
    )
    (property "Datasheet" "" (id 3) (at 88.9 76.2 0)
      (effects (font (size 1.27 1.27)) hide)
    )
    (pin "1" (uuid 39dd3d1e-3b68-4a60-9b09-70ad1d4fabdf))
    (pin "2" (uuid b5067c2d-22b7-4208-9ae1-238a3b3850b4))
    (pin "3" (uuid 591882dd-34fd-4ff8-a970-2d511329af01))
    (pin "4" (uuid 1eb9b746-7e0c-4324-aec8-939ec621aeae))
  )

  (sheet_instances
    (path "/" (page "1"))
  )

  (symbol_instances
    (path "/3cfd3d72-d025-45e9-bed4-1bf3bf145ba0"
      (reference "#PWR?") (unit 1) (value "GND") (footprint "")
    )
    (path "/47adb376-2f58-467f-a5ba-6490aaec20d2"
      (reference "#PWR?") (unit 1) (value "GND") (footprint "")
    )
    (path "/d69f270a-d715-4eb3-9618-a94ab69a5d3f"
      (reference "#PWR?") (unit 1) (value "+3.3V") (footprint "")
    )
    (path "/3e037654-4e12-4920-a35d-2850ab9ee893"
      (reference "U?") (unit 1) (value "esp32_lolin_s2") (footprint "board:esp32_lolin_s2")
    )
    (path "/ebd5edfb-276e-4eee-868f-741f02182975"
      (reference "U?") (unit 1) (value "am2322") (footprint "Connector_PinHeader_1.27mm:PinHeader_1x04_P1.27mm_Vertical")
    )
  )
)
